/*!
  * vue-router v3.4.9
  * (c) 2020 Evan You
  * @license MIT
  */

/*!
 * Vue.js v2.6.12
 * (c) 2014-2020 Evan You
 * Released under the MIT License.
 */

/*!
 * vuex v3.5.1
 * (c) 2020 Evan You
 * @license MIT
 */

//! moment.js

//! moment.js locale configuration
