{
    "/static/js/admin.js": "/static/js/admin.js?id=fb9c9b207f9abf639065",
    "/static/js/user.js": "/static/js/user.js?id=5e6b40a6235d156341ff",
    "/static/css/vendor.css": "/static/css/vendor.css?id=3381c73fa2e6dfa57a54",
    "/static/css/common.css": "/static/css/common.css?id=5fad99408f2cf3d093ad"
}
